\boolfalse {citerequest}\boolfalse {citetracker}\boolfalse {pagetracker}\boolfalse {backtracker}\relax 
\babel@toc {english}{}
\defcounter {refsection}{0}\relax 
\beamer@sectionintoc {1}{Quick recap}{2}{0}{1}
\defcounter {refsection}{0}\relax 
\beamer@sectionintoc {2}{Local dependencies}{45}{0}{2}
