\defcounter {refsection}{0}\relax 
\headcommand {\slideentry {0}{0}{1}{1/1}{}{0}}
\defcounter {refsection}{0}\relax 
\headcommand {\beamer@framepages {1}{1}}
\defcounter {refsection}{0}\relax 
\headcommand {\beamer@sectionpages {1}{1}}
\defcounter {refsection}{0}\relax 
\headcommand {\beamer@subsectionpages {1}{1}}
\defcounter {refsection}{0}\relax 
\headcommand {\sectionentry {1}{Quick recap}{2}{Quick recap}{0}}
\defcounter {refsection}{0}\relax 
\headcommand {\beamer@subsectionpages {2}{1}}
\defcounter {refsection}{0}\relax 
\headcommand {\slideentry {1}{1}{1}{2/2}{}{0}}
\defcounter {refsection}{0}\relax 
\headcommand {\beamer@framepages {2}{2}}
\defcounter {refsection}{0}\relax 
\headcommand {\slideentry {1}{1}{2}{3/3}{}{0}}
\defcounter {refsection}{0}\relax 
\headcommand {\beamer@framepages {3}{3}}
\defcounter {refsection}{0}\relax 
\headcommand {\slideentry {1}{1}{3}{4/4}{}{0}}
\defcounter {refsection}{0}\relax 
\headcommand {\beamer@framepages {4}{4}}
\defcounter {refsection}{0}\relax 
\headcommand {\slideentry {1}{1}{4}{5/5}{}{0}}
\defcounter {refsection}{0}\relax 
\headcommand {\beamer@framepages {5}{5}}
\defcounter {refsection}{0}\relax 
\headcommand {\slideentry {1}{1}{5}{6/6}{}{0}}
\defcounter {refsection}{0}\relax 
\headcommand {\beamer@framepages {6}{6}}
\defcounter {refsection}{0}\relax 
\headcommand {\slideentry {1}{1}{6}{7/7}{}{0}}
\defcounter {refsection}{0}\relax 
\headcommand {\beamer@framepages {7}{7}}
\defcounter {refsection}{0}\relax 
\headcommand {\slideentry {1}{1}{7}{8/8}{}{0}}
\defcounter {refsection}{0}\relax 
\headcommand {\beamer@framepages {8}{8}}
\defcounter {refsection}{0}\relax 
\headcommand {\slideentry {1}{1}{8}{9/11}{}{0}}
\defcounter {refsection}{0}\relax 
\headcommand {\beamer@framepages {9}{11}}
\defcounter {refsection}{0}\relax 
\headcommand {\slideentry {1}{1}{9}{12/13}{}{0}}
\defcounter {refsection}{0}\relax 
\headcommand {\beamer@framepages {12}{13}}
\defcounter {refsection}{0}\relax 
\headcommand {\slideentry {1}{1}{10}{14/14}{}{0}}
\defcounter {refsection}{0}\relax 
\headcommand {\beamer@framepages {14}{14}}
\defcounter {refsection}{0}\relax 
\headcommand {\slideentry {1}{1}{11}{15/15}{}{0}}
\defcounter {refsection}{0}\relax 
\headcommand {\beamer@framepages {15}{15}}
\defcounter {refsection}{0}\relax 
\headcommand {\slideentry {1}{1}{12}{16/16}{}{0}}
\defcounter {refsection}{0}\relax 
\headcommand {\beamer@framepages {16}{16}}
\defcounter {refsection}{0}\relax 
\headcommand {\slideentry {1}{1}{13}{17/17}{}{0}}
\defcounter {refsection}{0}\relax 
\headcommand {\beamer@framepages {17}{17}}
\defcounter {refsection}{0}\relax 
\headcommand {\slideentry {1}{1}{14}{18/18}{}{0}}
\defcounter {refsection}{0}\relax 
\headcommand {\beamer@framepages {18}{18}}
\defcounter {refsection}{0}\relax 
\headcommand {\slideentry {1}{1}{15}{19/19}{}{0}}
\defcounter {refsection}{0}\relax 
\headcommand {\beamer@framepages {19}{19}}
\defcounter {refsection}{0}\relax 
\headcommand {\slideentry {1}{1}{16}{20/20}{}{0}}
\defcounter {refsection}{0}\relax 
\headcommand {\beamer@framepages {20}{20}}
\defcounter {refsection}{0}\relax 
\headcommand {\slideentry {1}{1}{17}{21/21}{}{0}}
\defcounter {refsection}{0}\relax 
\headcommand {\beamer@framepages {21}{21}}
\defcounter {refsection}{0}\relax 
\headcommand {\slideentry {1}{1}{18}{22/22}{}{0}}
\defcounter {refsection}{0}\relax 
\headcommand {\beamer@framepages {22}{22}}
\defcounter {refsection}{0}\relax 
\headcommand {\slideentry {1}{1}{19}{23/23}{}{0}}
\defcounter {refsection}{0}\relax 
\headcommand {\beamer@framepages {23}{23}}
\defcounter {refsection}{0}\relax 
\headcommand {\slideentry {1}{1}{20}{24/24}{}{0}}
\defcounter {refsection}{0}\relax 
\headcommand {\beamer@framepages {24}{24}}
\defcounter {refsection}{0}\relax 
\headcommand {\slideentry {1}{1}{21}{25/25}{}{0}}
\defcounter {refsection}{0}\relax 
\headcommand {\beamer@framepages {25}{25}}
\defcounter {refsection}{0}\relax 
\headcommand {\slideentry {1}{1}{22}{26/26}{}{0}}
\defcounter {refsection}{0}\relax 
\headcommand {\beamer@framepages {26}{26}}
\defcounter {refsection}{0}\relax 
\headcommand {\slideentry {1}{1}{23}{27/27}{}{0}}
\defcounter {refsection}{0}\relax 
\headcommand {\beamer@framepages {27}{27}}
\defcounter {refsection}{0}\relax 
\headcommand {\slideentry {1}{1}{24}{28/28}{}{0}}
\defcounter {refsection}{0}\relax 
\headcommand {\beamer@framepages {28}{28}}
\defcounter {refsection}{0}\relax 
\headcommand {\slideentry {1}{1}{25}{29/29}{}{0}}
\defcounter {refsection}{0}\relax 
\headcommand {\beamer@framepages {29}{29}}
\defcounter {refsection}{0}\relax 
\headcommand {\slideentry {1}{1}{26}{30/30}{}{0}}
\defcounter {refsection}{0}\relax 
\headcommand {\beamer@framepages {30}{30}}
\defcounter {refsection}{0}\relax 
\headcommand {\slideentry {1}{1}{27}{31/31}{}{0}}
\defcounter {refsection}{0}\relax 
\headcommand {\beamer@framepages {31}{31}}
\defcounter {refsection}{0}\relax 
\headcommand {\slideentry {1}{1}{28}{32/32}{}{0}}
\defcounter {refsection}{0}\relax 
\headcommand {\beamer@framepages {32}{32}}
\defcounter {refsection}{0}\relax 
\headcommand {\slideentry {1}{1}{29}{33/33}{}{0}}
\defcounter {refsection}{0}\relax 
\headcommand {\beamer@framepages {33}{33}}
\defcounter {refsection}{0}\relax 
\headcommand {\slideentry {1}{1}{30}{34/34}{}{0}}
\defcounter {refsection}{0}\relax 
\headcommand {\beamer@framepages {34}{34}}
\defcounter {refsection}{0}\relax 
\headcommand {\slideentry {1}{1}{31}{35/35}{}{0}}
\defcounter {refsection}{0}\relax 
\headcommand {\beamer@framepages {35}{35}}
\defcounter {refsection}{0}\relax 
\headcommand {\slideentry {1}{1}{32}{36/36}{}{0}}
\defcounter {refsection}{0}\relax 
\headcommand {\beamer@framepages {36}{36}}
\defcounter {refsection}{0}\relax 
\headcommand {\slideentry {1}{1}{33}{37/37}{}{0}}
\defcounter {refsection}{0}\relax 
\headcommand {\beamer@framepages {37}{37}}
\defcounter {refsection}{0}\relax 
\headcommand {\slideentry {1}{1}{34}{38/38}{}{0}}
\defcounter {refsection}{0}\relax 
\headcommand {\beamer@framepages {38}{38}}
\defcounter {refsection}{0}\relax 
\headcommand {\slideentry {1}{1}{35}{39/39}{}{0}}
\defcounter {refsection}{0}\relax 
\headcommand {\beamer@framepages {39}{39}}
\defcounter {refsection}{0}\relax 
\headcommand {\beamer@sectionpages {2}{39}}
\defcounter {refsection}{0}\relax 
\headcommand {\beamer@subsectionpages {2}{39}}
\defcounter {refsection}{0}\relax 
\headcommand {\sectionentry {2}{Auxiliaries}{40}{Auxiliaries}{0}}
\defcounter {refsection}{0}\relax 
\headcommand {\beamer@subsectionpages {40}{39}}
\defcounter {refsection}{0}\relax 
\headcommand {\slideentry {2}{1}{1}{40/40}{}{0}}
\defcounter {refsection}{0}\relax 
\headcommand {\beamer@framepages {40}{40}}
\defcounter {refsection}{0}\relax 
\headcommand {\slideentry {2}{1}{2}{41/41}{}{0}}
\defcounter {refsection}{0}\relax 
\headcommand {\beamer@framepages {41}{41}}
\defcounter {refsection}{0}\relax 
\headcommand {\slideentry {2}{1}{3}{42/42}{}{0}}
\defcounter {refsection}{0}\relax 
\headcommand {\beamer@framepages {42}{42}}
\defcounter {refsection}{0}\relax 
\headcommand {\slideentry {2}{1}{4}{43/43}{}{0}}
\defcounter {refsection}{0}\relax 
\headcommand {\beamer@framepages {43}{43}}
\defcounter {refsection}{0}\relax 
\headcommand {\slideentry {2}{1}{5}{44/44}{}{0}}
\defcounter {refsection}{0}\relax 
\headcommand {\beamer@framepages {44}{44}}
\defcounter {refsection}{0}\relax 
\headcommand {\slideentry {2}{1}{6}{45/45}{}{0}}
\defcounter {refsection}{0}\relax 
\headcommand {\beamer@framepages {45}{45}}
\defcounter {refsection}{0}\relax 
\headcommand {\slideentry {2}{1}{7}{46/46}{}{0}}
\defcounter {refsection}{0}\relax 
\headcommand {\beamer@framepages {46}{46}}
\defcounter {refsection}{0}\relax 
\headcommand {\slideentry {2}{1}{8}{47/47}{}{0}}
\defcounter {refsection}{0}\relax 
\headcommand {\beamer@framepages {47}{47}}
\defcounter {refsection}{0}\relax 
\headcommand {\slideentry {2}{1}{9}{48/48}{}{0}}
\defcounter {refsection}{0}\relax 
\headcommand {\beamer@framepages {48}{48}}
\defcounter {refsection}{0}\relax 
\headcommand {\slideentry {2}{1}{10}{49/49}{}{0}}
\defcounter {refsection}{0}\relax 
\headcommand {\beamer@framepages {49}{49}}
\defcounter {refsection}{0}\relax 
\headcommand {\slideentry {2}{1}{11}{50/50}{}{0}}
\defcounter {refsection}{0}\relax 
\headcommand {\beamer@framepages {50}{50}}
\defcounter {refsection}{0}\relax 
\headcommand {\slideentry {2}{1}{12}{51/51}{}{0}}
\defcounter {refsection}{0}\relax 
\headcommand {\beamer@framepages {51}{51}}
\defcounter {refsection}{0}\relax 
\headcommand {\slideentry {2}{1}{13}{52/52}{}{0}}
\defcounter {refsection}{0}\relax 
\headcommand {\beamer@framepages {52}{52}}
\defcounter {refsection}{0}\relax 
\headcommand {\slideentry {2}{1}{14}{53/53}{}{0}}
\defcounter {refsection}{0}\relax 
\headcommand {\beamer@framepages {53}{53}}
\defcounter {refsection}{0}\relax 
\headcommand {\slideentry {2}{1}{15}{54/54}{}{0}}
\defcounter {refsection}{0}\relax 
\headcommand {\beamer@framepages {54}{54}}
\defcounter {refsection}{0}\relax 
\headcommand {\slideentry {2}{1}{16}{55/55}{}{0}}
\defcounter {refsection}{0}\relax 
\headcommand {\beamer@framepages {55}{55}}
\defcounter {refsection}{0}\relax 
\headcommand {\slideentry {2}{1}{17}{56/56}{}{0}}
\defcounter {refsection}{0}\relax 
\headcommand {\beamer@framepages {56}{56}}
\defcounter {refsection}{0}\relax 
\headcommand {\slideentry {2}{1}{18}{57/57}{}{0}}
\defcounter {refsection}{0}\relax 
\headcommand {\beamer@framepages {57}{57}}
\defcounter {refsection}{0}\relax 
\headcommand {\slideentry {2}{1}{19}{58/58}{}{0}}
\defcounter {refsection}{0}\relax 
\headcommand {\beamer@framepages {58}{58}}
\defcounter {refsection}{0}\relax 
\headcommand {\slideentry {2}{1}{20}{59/59}{}{0}}
\defcounter {refsection}{0}\relax 
\headcommand {\beamer@framepages {59}{59}}
\defcounter {refsection}{0}\relax 
\headcommand {\slideentry {2}{1}{21}{60/60}{}{0}}
\defcounter {refsection}{0}\relax 
\headcommand {\beamer@framepages {60}{60}}
\defcounter {refsection}{0}\relax 
\headcommand {\slideentry {2}{1}{22}{61/61}{}{0}}
\defcounter {refsection}{0}\relax 
\headcommand {\beamer@framepages {61}{61}}
\defcounter {refsection}{0}\relax 
\headcommand {\slideentry {2}{1}{23}{62/62}{}{0}}
\defcounter {refsection}{0}\relax 
\headcommand {\beamer@framepages {62}{62}}
\defcounter {refsection}{0}\relax 
\headcommand {\slideentry {2}{1}{24}{63/63}{}{0}}
\defcounter {refsection}{0}\relax 
\headcommand {\beamer@framepages {63}{63}}
\defcounter {refsection}{0}\relax 
\headcommand {\slideentry {2}{1}{25}{64/64}{}{0}}
\defcounter {refsection}{0}\relax 
\headcommand {\beamer@framepages {64}{64}}
\headcommand {\beamer@partpages {1}{64}}
\headcommand {\beamer@subsectionpages {40}{64}}
\headcommand {\beamer@sectionpages {40}{64}}
\headcommand {\beamer@documentpages {64}}
\headcommand {\gdef \inserttotalframenumber {61}}
